[gd_scene load_steps=7 format=2]

[ext_resource path="res://assets/brid.obj" type="ArrayMesh" id=1]
[ext_resource path="res://src/brid.gd" type="Script" id=2]
[ext_resource path="res://assets/textures/lava1.png" type="Texture" id=3]

[sub_resource type="BoxShape" id=1]
extents = Vector3( 1, 1, 5.71265 )

[sub_resource type="SpatialMaterial" id=2]
albedo_texture = ExtResource( 3 )

[sub_resource type="BoxShape" id=3]
extents = Vector3( 6.19887, 1, 1.29566 )

[node name="brid" type="KinematicBody"]
script = ExtResource( 2 )

[node name="bridcol" type="CollisionShape" parent="."]
shape = SubResource( 1 )

[node name="MeshInstance" type="MeshInstance" parent="."]
transform = Transform( -1, 0, -8.74228e-08, 0, 1, 0, 8.74228e-08, 0, -1, 0, 0, 0 )
mesh = ExtResource( 1 )
material/0 = SubResource( 2 )

[node name="launchpos" type="Spatial" parent="."]
transform = Transform( 1, 0, 0, 0, 1, 0, 0, 0, 1, 0, -1, -7 )

[node name="CollisionShape" type="CollisionShape" parent="."]
transform = Transform( 1, 0, 0, 0, 1, 0, 0, 0, 1, 0, 0, 0.382857 )
shape = SubResource( 3 )
