# Blender v2.81 (sub 16) OBJ File: 'brid.blend'
# www.blender.org
mtllib brid.mtl
o Cylinder
v 0.997487 0.092512 -0.847355
v 1.000000 0.000000 1.000000
v 2.054186 0.506420 -0.346650
v 0.888464 0.297301 0.962754
v 0.756929 0.669021 0.955934
v 0.717070 0.527017 -0.945334
v 1.966458 0.777066 -0.346650
v 3.606782 0.767609 -0.740716
v 3.848175 0.881969 0.378337
v 3.664339 0.921475 -0.754983
v 5.084273 0.640168 0.030112
v 4.875434 0.630054 -0.966535
v 4.884830 0.689851 -0.974821
v 6.835916 -0.451139 -1.298909
v 6.142971 0.277103 -2.997508
v 0.339336 0.617620 1.191840
v 0.499230 -0.536071 0.536848
v 0.526788 -0.024095 1.109182
v 0.374125 -0.201696 1.835004
v 0.365065 0.403613 2.338307
v 0.516280 0.122082 2.311099
v 0.365065 -0.159449 2.283890
v 0.360723 -0.269703 2.774105
v 0.357855 0.409424 3.023274
v 0.429707 0.351948 3.451420
v 0.526937 -0.015284 3.411032
v 0.365065 -0.470272 3.328804
v 0.558906 0.163815 3.779103
v 0.331618 0.619282 4.489269
v 0.516280 0.325764 4.435569
v 0.457426 0.151919 5.641834
v 0.369426 -0.969243 3.821270
v 0.516280 -0.514165 3.626546
v 0.481564 -0.884823 4.495410
v 0.287317 -1.082637 5.385694
v 0.695546 -0.073354 3.907512
v 0.851054 -0.019063 -2.955706
v 0.536764 -0.201545 -3.285832
v 0.523657 0.330005 -2.999930
v 1.033625 0.382323 -4.213605
v 1.225059 -0.542905 -4.866690
v 1.320595 0.491113 -4.541779
v 1.401034 -0.207002 -4.758739
v 1.749544 2.521765 -6.182756
v 1.388301 0.913053 -5.098032
v 0.975374 0.043083 -4.999494
v -0.000000 0.767247 -1.000000
v -0.997487 0.092512 -0.847355
v -1.000000 0.000000 1.000000
v -0.000000 -0.593599 -1.000000
v -0.000000 -0.774820 0.484433
v -2.054186 0.506420 -0.346650
v -0.888464 0.297301 0.962754
v -0.756929 0.669021 0.955934
v -0.717070 0.527017 -0.945334
v -1.966458 0.777066 -0.346650
v -3.606782 0.767609 -0.740716
v -3.848175 0.881969 0.378337
v -3.664339 0.921475 -0.754983
v -5.084273 0.640168 0.030112
v -4.875434 0.630054 -0.966535
v -4.884830 0.689851 -0.974821
v -6.835916 -0.451139 -1.298909
v -6.142971 0.277103 -2.997508
v -0.339336 0.617620 1.191840
v -0.499230 -0.536071 0.536848
v 0.000000 0.839837 0.965230
v -0.526788 -0.024095 1.109182
v -0.374125 -0.201696 1.835004
v 0.000000 -0.290605 1.954214
v -0.365065 0.403613 2.338307
v 0.000000 -0.276063 2.272620
v 0.000000 0.520227 2.349577
v -0.516280 0.122082 2.311099
v -0.365065 -0.159449 2.283890
v 0.000000 0.554381 3.057750
v -0.360723 -0.269703 2.774105
v -0.357855 0.409424 3.023274
v 0.000000 -0.352183 2.679123
v -0.429707 0.351948 3.451420
v -0.526937 -0.015284 3.411032
v 0.000000 0.527299 3.558424
v -0.365065 -0.470272 3.328804
v 0.000000 -0.641428 3.289408
v 0.000000 0.755558 4.564204
v -0.558906 0.163815 3.779103
v -0.331618 0.619282 4.489269
v -0.516280 0.325764 4.435569
v 0.000000 0.306221 5.503961
v -0.457426 0.151919 5.641834
v -0.369426 -0.969243 3.821270
v -0.516280 -0.514165 3.626546
v -0.481564 -0.884823 4.495410
v 0.000000 -1.229857 3.934961
v -0.287317 -1.082637 5.385694
v 0.000000 -1.170296 5.480205
v -0.695546 -0.073354 3.907512
v -0.851054 -0.019063 -2.955706
v -0.536764 -0.201545 -3.285832
v -0.523657 0.330005 -2.999930
v -1.033625 0.382323 -4.213605
v -1.225059 -0.542905 -4.866690
v -1.320595 0.491113 -4.541779
v -1.401034 -0.207002 -4.758739
v -1.749544 2.521765 -6.182756
v -1.388301 0.913053 -5.098032
v -0.975374 0.043083 -4.999494
vt 1.000000 1.000000
vt 0.875000 0.500000
vt 1.000000 0.500000
vt 0.625000 0.989075
vt 0.500000 1.000000
vt 0.500000 0.500000
vt 0.750000 0.500000
vt 0.750000 1.000000
vt 0.750000 1.000000
vt 0.750000 0.500000
vt 0.750000 1.000000
vt 0.000000 0.000000
vt 0.000000 0.000000
vt 0.000000 0.000000
vt 0.875000 1.000000
vt 0.875000 0.500000
vt 0.750000 0.500000
vt 0.750000 0.750000
vt 0.750000 1.000000
vt 0.000000 0.000000
vt 0.000000 0.000000
vt 0.000000 0.000000
vt 0.000000 0.000000
vt 0.000000 0.000000
vt 0.875000 1.000000
vt 0.875000 0.500000
vt 0.875000 1.000000
vt 0.875000 0.750000
vt 0.814286 0.931821
vt 0.811948 0.636401
vt 0.000000 0.000000
vt 0.000000 0.000000
vt 0.000000 0.000000
vt 0.750000 1.000000
vt 0.625000 1.000000
vt 0.500000 1.000000
vt 0.000000 0.000000
vt 0.000000 0.000000
vt 0.000000 0.000000
vt 0.625000 1.000000
vt 0.500000 1.000000
vt 0.500000 1.000000
vt 0.000000 0.000000
vt 0.000000 0.000000
vt 0.875000 1.000000
vt 1.000000 1.000000
vt 0.875000 1.000000
vt 0.875000 1.000000
vt 0.000000 0.000000
vt 0.000000 0.000000
vt 1.000000 1.000000
vt 0.875000 1.000000
vt 0.000000 0.000000
vt 0.625000 1.000000
vt 0.750000 1.000000
vt 0.625000 1.000000
vt 0.875000 1.000000
vt 0.625000 1.000000
vt 0.750000 1.000000
vt 0.000000 0.000000
vt 0.000000 0.000000
vt 0.000000 0.000000
vt 0.000000 0.000000
vt 1.000000 1.000000
vt 0.875000 1.000000
vt 0.000000 0.000000
vt 0.000000 0.000000
vt 0.000000 0.000000
vt 0.000000 0.000000
vt 0.000000 0.000000
vt 0.750000 1.000000
vt 0.647441 1.000000
vt 0.000000 0.000000
vt 0.000000 0.000000
vt 0.452953 0.603937
vt 0.000000 0.000000
vt 0.000000 0.000000
vt 0.000000 0.000000
vt 0.980492 0.500000
vt 0.725722 0.500000
vt 0.000000 0.000000
vt 0.000000 0.000000
vt 0.000000 0.000000
vt 0.500000 0.500000
vt 0.500000 0.500000
vt 0.633769 0.500000
vt 0.000000 0.000000
vt 1.000000 0.500000
vt 0.875000 0.500000
vt 0.996862 0.506951
vt 0.000000 0.000000
vt -0.102755 -0.051378
vt 0.750000 0.500000
vt 0.748189 0.500000
vt 0.500000 0.500000
vt 0.875000 0.500000
vt 0.000000 0.000000
vt 0.000000 0.000000
vt 0.000000 0.000000
vt 0.750000 0.500000
vt 0.625000 0.989075
vt 0.750000 1.000000
vt 0.750000 1.000000
vt 0.750000 0.500000
vt 0.750000 1.000000
vt 0.000000 0.000000
vt 0.000000 0.000000
vt 0.000000 0.000000
vt 0.875000 0.500000
vt 0.875000 1.000000
vt 0.000000 0.000000
vt 0.000000 0.000000
vt 0.000000 0.000000
vt 0.875000 1.000000
vt 0.875000 0.500000
vt 0.811948 0.636401
vt 0.875000 0.750000
vt 0.875000 1.000000
vt 0.750000 0.750000
vt 0.814286 0.931821
vt 0.750000 1.000000
vt 0.750000 0.500000
vt 0.000000 0.000000
vt 0.000000 0.000000
vt 0.000000 0.000000
vt 0.000000 0.000000
vt 0.000000 0.000000
vt 0.625000 1.000000
vt 0.750000 1.000000
vt 0.000000 0.000000
vt 0.000000 0.000000
vt 0.000000 0.000000
vt 0.625000 1.000000
vt 0.000000 0.000000
vt 0.000000 0.000000
vt 0.875000 1.000000
vt 0.875000 1.000000
vt 0.875000 1.000000
vt 0.000000 0.000000
vt 0.000000 0.000000
vt 1.000000 1.000000
vt 0.000000 0.000000
vt 0.000000 0.000000
vt 0.625000 1.000000
vt 0.750000 1.000000
vt 0.750000 1.000000
vt 0.875000 1.000000
vt 0.875000 1.000000
vt 0.000000 0.000000
vt 0.000000 0.000000
vt 0.000000 0.000000
vt 0.000000 0.000000
vt 0.000000 0.000000
vt 0.000000 0.000000
vt 1.000000 1.000000
vt 0.000000 0.000000
vt 0.625000 1.000000
vt 0.647441 1.000000
vt 0.750000 1.000000
vt 0.000000 0.000000
vt 0.000000 0.000000
vt 0.452953 0.603937
vt 0.000000 0.000000
vt 0.980492 0.500000
vt 0.725722 0.500000
vt 0.000000 0.000000
vt 0.500000 0.500000
vt 0.500000 0.500000
vt 0.000000 0.000000
vt 0.000000 0.000000
vt 0.633769 0.500000
vt 0.500000 0.500000
vt 1.000000 0.500000
vt 0.996862 0.506951
vt 0.000000 0.000000
vt 0.000000 0.000000
vt 0.000000 0.000000
vt 0.000000 0.000000
vt 0.625000 1.000000
vt 0.875000 1.000000
vt 0.000000 0.000000
vt 0.875000 0.500000
vt -0.102755 -0.051378
vt 0.000000 0.000000
vt 0.750000 0.500000
vt 0.748189 0.500000
vn 0.3199 0.9468 -0.0350
vn 0.4382 -0.8923 -0.1089
vn 0.1974 -0.9801 0.0192
vn 0.9355 0.3530 0.0164
vn 0.3846 0.1247 -0.9146
vn -0.1634 0.9841 -0.0701
vn -0.1022 -0.9943 0.0315
vn 0.1777 0.0809 0.9808
vn -0.2464 0.0023 -0.9692
vn -0.0735 0.9962 0.0467
vn 0.1946 0.9808 0.0099
vn -0.4663 -0.8782 0.1066
vn -0.0862 -0.9893 0.1181
vn -0.6369 0.1685 -0.7523
vn 0.4888 0.0305 0.8719
vn 0.9643 -0.2188 0.1493
vn 0.3094 -0.9032 0.2975
vn 0.8742 -0.4811 0.0662
vn 0.9605 0.2767 0.0301
vn 0.3045 -0.9362 -0.1753
vn 0.9000 -0.4313 -0.0626
vn 0.3028 -0.9521 0.0435
vn 0.3047 0.9375 0.1682
vn 0.3041 0.9526 -0.0049
vn 0.8819 0.4688 0.0500
vn 0.4308 -0.8476 -0.3098
vn 0.3895 0.9192 0.0580
vn 0.3758 -0.6493 -0.6612
vn 0.7707 -0.4442 -0.4569
vn 0.3250 0.9228 -0.2070
vn 0.9420 -0.3133 -0.1207
vn 0.8611 0.5061 -0.0490
vn 0.8501 0.5137 0.1155
vn 0.2035 0.9149 0.3488
vn -0.1924 -0.9750 -0.1108
vn -0.2750 -0.9496 -0.1503
vn 0.5701 -0.8210 -0.0296
vn 0.9309 -0.3480 -0.1113
vn -0.0959 0.9676 0.2336
vn -0.4290 0.8368 0.3402
vn -0.4269 0.8378 0.3403
vn -0.2393 0.9576 0.1605
vn -0.0000 -0.0962 0.9954
vn 0.9280 -0.1643 -0.3344
vn 0.9422 -0.3201 -0.0989
vn 0.9383 0.2719 -0.2138
vn -0.4251 -0.8472 -0.3188
vn 0.3236 0.9385 -0.1205
vn 0.7630 -0.6462 -0.0188
vn 0.7313 0.6690 -0.1330
vn 0.5529 -0.8305 -0.0673
vn 0.8026 -0.5164 0.2986
vn 0.6425 0.6534 0.4004
vn 0.6125 0.4145 0.6730
vn 0.9557 -0.2787 -0.0951
vn 0.9841 0.0616 0.1665
vn 0.3502 -0.2679 -0.8975
vn 0.8235 -0.4325 -0.3671
vn -0.9674 -0.0000 -0.2533
vn -0.9029 0.1070 -0.4162
vn -0.9151 -0.3412 0.2151
vn -0.9597 0.2767 -0.0483
vn -0.3199 0.9468 -0.0350
vn -0.9275 0.3248 -0.1848
vn -0.7450 -0.6662 -0.0344
vn -0.1974 -0.9801 0.0192
vn -0.9355 0.3530 0.0164
vn -0.4202 0.0671 -0.9049
vn -0.3098 -0.9425 0.1253
vn 0.1634 0.9841 -0.0701
vn -0.1777 0.0809 0.9808
vn 0.2273 -0.0737 -0.9710
vn 0.0644 0.9977 0.0229
vn -0.1691 0.9810 -0.0950
vn -0.1946 0.9808 0.0099
vn 0.2197 -0.1000 -0.9704
vn 0.4663 -0.8782 0.1066
vn -0.4971 0.8659 -0.0558
vn -0.8423 -0.0581 0.5358
vn 0.0862 -0.9893 0.1181
vn 0.6369 0.1685 -0.7523
vn -0.2157 0.1420 0.9661
vn -0.1937 0.8297 0.5236
vn -0.9643 -0.2188 0.1493
vn -0.1874 -0.7366 0.6499
vn -0.3933 -0.8805 0.2647
vn -0.8742 -0.4811 0.0662
vn -0.9605 0.2767 0.0301
vn -0.3045 -0.9362 -0.1753
vn -0.8807 -0.4637 -0.0965
vn -0.2589 -0.9612 0.0957
vn -0.4385 0.8757 0.2022
vn -0.3041 0.9526 -0.0049
vn -0.8819 0.4688 0.0500
vn -0.3042 -0.8608 -0.4080
vn -0.3791 0.9240 0.0500
vn -0.3758 -0.6493 -0.6612
vn -0.8562 -0.2202 -0.4673
vn -0.3250 0.9228 -0.2070
vn -0.9557 0.2667 -0.1246
vn -0.8611 0.5061 -0.0490
vn -0.8501 0.5137 0.1155
vn -0.8372 0.5412 -0.0791
vn -0.4240 0.8171 0.3907
vn 0.1924 -0.9750 -0.1108
vn 0.2750 -0.9496 -0.1503
vn -0.5701 -0.8210 -0.0296
vn -0.6703 -0.7419 -0.0186
vn -0.9309 -0.3480 -0.1113
vn 0.0959 0.9676 0.2336
vn 0.4290 0.8368 0.3402
vn 0.4269 0.8378 0.3403
vn 0.2393 0.9576 0.1605
vn -0.8909 0.3731 -0.2589
vn -0.9422 -0.3201 -0.0989
vn -0.9383 0.2719 -0.2138
vn 0.5816 -0.7978 0.1590
vn -0.3236 0.9385 -0.1205
vn -0.7630 -0.6462 -0.0188
vn -0.8458 0.5264 -0.0866
vn -0.3487 -0.9340 -0.0783
vn -0.2252 -0.9275 0.2983
vn -0.6425 0.6534 0.4004
vn -0.4996 0.0166 -0.8661
vn 0.9729 0.0905 -0.2129
vn 0.9098 0.1790 -0.3745
vn 0.9151 -0.3412 0.2151
vn 0.9597 0.2767 -0.0483
vn 0.2186 0.9728 -0.0772
vn 0.9275 0.3248 -0.1848
vn 0.7450 -0.6662 -0.0344
vn 0.1807 -0.9816 0.0613
vn 0.4202 0.0671 -0.9049
vn 0.3098 -0.9425 0.1253
vn -0.1540 -0.9790 0.1333
vn -0.2273 -0.0737 -0.9710
vn -0.0644 0.9977 0.0229
vn 0.1691 0.9810 -0.0950
vn 0.1871 0.9823 0.0039
vn -0.2197 -0.1000 -0.9704
vn 0.4971 0.8659 -0.0558
vn 0.8423 -0.0581 0.5358
vn 0.2157 0.1420 0.9661
vn 0.1937 0.8297 0.5236
vn 0.1874 -0.7366 0.6499
vn 0.3933 -0.8805 0.2647
vn 0.8767 -0.4769 0.0626
vn 0.8778 0.4763 -0.0503
vn 0.2699 -0.9399 -0.2090
vn 0.8807 -0.4637 -0.0965
vn 0.2589 -0.9612 0.0957
vn 0.4385 0.8757 0.2022
vn 0.3714 0.9274 -0.0447
vn 0.9270 0.3750 0.0066
vn 0.3042 -0.8608 -0.4080
vn 0.3791 0.9240 0.0500
vn 0.2996 -0.7051 -0.6427
vn 0.8562 -0.2202 -0.4673
vn 0.3310 0.9202 -0.2088
vn 0.9557 0.2667 -0.1246
vn 0.8372 0.5412 -0.0791
vn 0.4240 0.8171 0.3907
vn 0.3026 -0.9524 0.0367
vn 0.6703 -0.7419 -0.0186
vn 0.8909 0.3731 -0.2589
vn 0.8786 0.4738 -0.0598
vn -0.5816 -0.7978 0.1590
vn 0.8458 0.5264 -0.0866
vn 0.3487 -0.9340 -0.0783
vn 0.2252 -0.9275 0.2983
vn 0.9569 0.0202 0.2898
vn -0.5267 0.8296 -0.1855
vn 0.4996 0.0166 -0.8661
vn -0.9729 0.0905 -0.2129
vn -0.9098 0.1790 -0.3745
vn -0.2186 0.9728 -0.0772
vn -0.4382 -0.8923 -0.1089
vn -0.1807 -0.9816 0.0613
vn -0.3846 0.1247 -0.9146
vn 0.1540 -0.9790 0.1333
vn 0.1022 -0.9943 0.0315
vn 0.2464 0.0023 -0.9692
vn 0.0735 0.9962 0.0467
vn -0.1871 0.9823 0.0039
vn -0.4888 0.0305 0.8719
vn -0.3094 -0.9032 0.2975
vn -0.8767 -0.4769 0.0626
vn -0.8778 0.4763 -0.0503
vn -0.2699 -0.9399 -0.2090
vn -0.9000 -0.4313 -0.0626
vn -0.3028 -0.9521 0.0435
vn -0.3047 0.9375 0.1682
vn -0.3714 0.9274 -0.0447
vn -0.9270 0.3750 0.0066
vn -0.4308 -0.8476 -0.3098
vn -0.3895 0.9192 0.0580
vn -0.2996 -0.7051 -0.6427
vn -0.7707 -0.4442 -0.4569
vn -0.3310 0.9202 -0.2088
vn -0.9420 -0.3133 -0.1207
vn -0.2035 0.9149 0.3488
vn -0.3026 -0.9524 0.0367
vn -0.9280 -0.1643 -0.3344
vn -0.8786 0.4738 -0.0598
vn 0.4251 -0.8472 -0.3188
vn -0.7313 0.6690 -0.1330
vn -0.5529 -0.8305 -0.0673
vn -0.8026 -0.5164 0.2986
vn -0.9569 0.0202 0.2898
vn 0.5267 0.8296 -0.1855
vn -0.6125 0.4145 0.6730
vn -0.9557 -0.2787 -0.0951
vn -0.9841 0.0616 0.1665
vn -0.3502 -0.2679 -0.8975
vn -0.8235 -0.4325 -0.3671
vn 0.9674 -0.0000 -0.2533
vn 0.9029 0.1070 -0.4162
usemtl None
s off
f 67/1/1 6/2/1 47/3/1
f 17/4/2 51/5/2 50/6/2
f 3/7/3 9/8/3 4/9/3
f 1/10/4 4/9/4 2/11/4
f 1/12/5 7/13/5 3/14/5
f 5/15/6 7/16/6 6/2/6
f 8/17/7 12/18/7 11/19/7
f 4/20/8 9/21/8 5/22/8
f 3/14/9 10/23/9 8/24/9
f 7/16/10 9/25/10 10/26/10
f 9/25/11 11/27/11 13/28/11
f 12/18/12 14/29/12 11/19/12
f 8/17/13 15/30/13 12/18/13
f 10/23/14 15/31/14 8/24/14
f 5/22/15 16/32/15 18/33/15
f 18/34/16 19/35/16 17/4/16
f 51/5/17 19/35/17 70/36/17
f 19/37/18 18/33/18 21/38/18
f 18/33/19 16/32/19 20/39/19
f 22/40/20 79/41/20 72/42/20
f 21/38/21 26/43/21 23/44/21
f 70/36/22 22/40/22 72/42/22
f 16/45/23 73/46/23 20/47/23
f 73/46/24 24/48/24 20/47/24
f 20/39/25 26/43/25 21/38/25
f 23/44/26 27/49/26 84/50/26
f 24/48/27 82/51/27 25/52/27
f 84/50/28 27/49/28 32/53/28
f 27/54/29 33/55/29 32/56/29
f 82/51/30 29/57/30 25/52/30
f 23/58/31 26/59/31 27/54/31
f 29/57/32 28/60/32 25/52/32
f 29/61/33 31/62/33 30/63/33
f 29/57/34 89/64/34 31/65/34
f 82/51/35 30/63/35 89/64/35
f 31/62/36 89/64/36 30/63/36
f 94/66/37 32/53/37 35/67/37
f 32/53/38 33/68/38 34/69/38
f 96/70/39 34/71/39 84/50/39
f 27/49/40 84/50/40 34/69/40
f 27/49/41 34/69/41 33/68/41
f 96/70/42 35/72/42 34/71/42
f 22/73/43 20/39/43 73/74/43
f 26/59/44 36/75/44 33/55/44
f 36/76/45 34/69/45 33/68/45
f 26/59/46 25/52/46 28/60/46
f 28/60/47 82/77/47 25/78/47
f 6/2/48 39/79/48 47/3/48
f 17/4/49 37/80/49 1/10/49
f 6/81/50 37/82/50 39/83/50
f 17/4/51 38/84/51 37/80/51
f 37/80/52 41/85/52 43/86/52
f 37/82/53 42/87/53 39/83/53
f 40/88/54 42/89/54 44/90/54
f 42/87/55 45/91/55 44/92/55
f 42/93/56 43/86/56 45/94/56
f 43/86/57 46/95/57 45/94/57
f 44/92/58 45/94/58 46/95/58
f 39/79/59 50/6/59 47/3/59
f 38/84/60 40/88/60 41/85/60
f 40/88/61 46/95/61 41/85/61
f 40/88/62 44/90/62 46/95/62
f 55/96/63 67/1/63 47/3/63
f 54/97/64 53/98/64 49/99/64
f 48/100/65 66/101/65 49/102/65
f 58/103/66 52/104/66 53/105/66
f 53/105/67 48/100/67 49/102/67
f 48/106/68 56/107/68 55/108/68
f 53/105/69 52/104/69 48/100/69
f 56/109/70 54/110/70 55/96/70
f 58/111/71 53/98/71 54/97/71
f 52/112/72 59/113/72 56/107/72
f 56/109/73 58/114/73 54/110/73
f 59/115/74 64/116/74 62/117/74
f 62/117/75 60/118/75 58/114/75
f 61/119/76 63/120/76 62/117/76
f 63/120/77 61/119/77 60/121/77
f 62/117/78 63/120/78 60/118/78
f 62/117/79 64/116/79 61/119/79
f 64/116/80 57/122/80 61/119/80
f 64/123/81 59/113/81 57/124/81
f 54/97/82 49/99/82 68/125/82
f 67/126/83 54/97/83 65/127/83
f 69/128/84 68/129/84 66/101/84
f 66/101/85 68/129/85 49/102/85
f 51/5/86 69/128/86 66/101/86
f 74/130/87 68/125/87 69/131/87
f 71/132/88 65/127/88 68/125/88
f 79/41/89 75/133/89 72/42/89
f 74/130/90 75/134/90 77/135/90
f 70/36/91 75/133/91 69/128/91
f 65/136/92 73/46/92 67/1/92
f 78/137/93 73/46/93 71/138/93
f 81/139/94 71/132/94 74/130/94
f 77/135/95 79/140/95 84/50/95
f 78/137/96 82/51/96 76/141/96
f 91/142/97 83/143/97 84/50/97
f 83/144/98 92/145/98 81/146/98
f 87/147/99 82/51/99 80/148/99
f 81/139/100 80/149/100 78/150/100
f 87/147/101 80/148/101 86/151/101
f 90/152/102 87/153/102 88/154/102
f 87/153/103 86/151/103 88/154/103
f 87/147/104 89/64/104 85/155/104
f 82/51/105 89/64/105 88/154/105
f 90/152/106 88/154/106 89/64/106
f 95/156/107 91/142/107 94/66/107
f 91/157/108 95/158/108 93/159/108
f 93/160/109 92/161/109 91/142/109
f 96/70/110 84/50/110 93/159/110
f 83/143/111 93/160/111 84/50/111
f 83/143/112 92/161/112 93/160/112
f 96/70/113 93/159/113 95/158/113
f 71/132/43 74/130/43 75/134/43
f 81/146/114 97/162/114 86/151/114
f 92/161/115 93/160/115 97/163/115
f 81/146/116 86/151/116 80/148/116
f 86/151/117 82/77/117 88/154/117
f 100/164/118 55/96/118 47/3/118
f 98/165/119 66/101/119 48/100/119
f 55/108/120 98/166/120 48/106/120
f 66/101/121 99/167/121 50/6/121
f 98/165/122 102/168/122 99/167/122
f 103/169/123 98/166/123 100/170/123
f 104/171/124 107/172/124 102/168/124
f 100/164/125 50/6/125 99/167/125
f 99/167/126 101/173/126 100/164/126
f 101/173/127 102/168/127 107/172/127
f 101/173/128 107/172/128 105/174/128
f 67/1/129 5/15/129 6/2/129
f 5/22/130 2/175/130 4/20/130
f 1/10/131 2/11/131 17/4/131
f 3/7/132 8/17/132 9/8/132
f 1/12/133 6/81/133 7/13/133
f 4/9/134 1/10/134 3/7/134
f 11/19/135 9/8/135 8/17/135
f 3/14/136 7/13/136 10/23/136
f 7/16/137 5/15/137 9/25/137
f 10/26/138 13/28/138 15/30/138
f 10/26/139 9/25/139 13/28/139
f 12/18/140 13/28/140 14/29/140
f 13/28/141 11/27/141 14/29/141
f 13/28/142 12/18/142 15/30/142
f 5/22/143 18/33/143 2/175/143
f 67/126/144 16/32/144 5/22/144
f 17/4/145 2/11/145 18/34/145
f 51/5/146 17/4/146 19/35/146
f 19/37/147 21/38/147 22/73/147
f 18/33/148 20/39/148 21/38/148
f 22/40/149 23/58/149 79/41/149
f 21/38/150 23/44/150 22/73/150
f 70/36/151 19/35/151 22/40/151
f 16/45/152 67/1/152 73/46/152
f 73/46/153 76/141/153 24/48/153
f 20/39/154 24/176/154 26/43/154
f 23/44/155 84/50/155 79/140/155
f 24/48/156 76/141/156 82/51/156
f 84/50/157 32/53/157 94/66/157
f 27/54/158 26/59/158 33/55/158
f 82/51/159 85/155/159 29/57/159
f 26/43/160 24/176/160 25/78/160
f 29/61/161 30/63/161 28/60/161
f 29/57/162 85/155/162 89/64/162
f 94/66/163 35/67/163 96/70/163
f 32/56/164 34/71/164 35/72/164
f 73/74/43 72/177/43 22/73/43
f 22/73/43 21/38/43 20/39/43
f 26/59/165 28/60/165 36/75/165
f 36/76/166 28/60/166 30/63/166
f 28/60/167 30/63/167 82/77/167
f 6/81/168 1/12/168 37/82/168
f 17/4/169 50/6/169 38/84/169
f 37/80/170 38/84/170 41/85/170
f 37/82/171 43/178/171 42/87/171
f 39/79/172 42/89/172 40/88/172
f 43/86/173 41/85/173 46/95/173
f 39/79/174 38/84/174 50/6/174
f 38/84/175 39/79/175 40/88/175
f 55/96/176 54/110/176 67/1/176
f 66/101/177 50/6/177 51/5/177
f 58/103/178 57/122/178 52/104/178
f 48/106/179 52/112/179 56/107/179
f 57/122/180 58/103/180 60/121/180
f 60/121/181 61/119/181 57/122/181
f 52/112/182 57/124/182 59/113/182
f 56/109/183 59/115/183 58/114/183
f 58/114/184 59/115/184 62/117/184
f 54/97/185 68/125/185 65/127/185
f 51/5/186 70/36/186 69/128/186
f 74/130/187 69/131/187 75/134/187
f 71/132/188 68/125/188 74/130/188
f 79/41/189 77/179/189 75/133/189
f 74/130/190 77/135/190 81/139/190
f 70/36/191 72/42/191 75/133/191
f 65/136/192 71/138/192 73/46/192
f 78/137/193 76/141/193 73/46/193
f 81/139/194 78/150/194 71/132/194
f 77/135/195 84/50/195 83/143/195
f 78/137/196 80/148/196 82/51/196
f 91/142/197 84/50/197 94/66/197
f 83/144/198 91/157/198 92/145/198
f 87/147/199 85/155/199 82/51/199
f 77/179/200 83/144/200 81/146/200
f 87/147/201 90/180/201 89/64/201
f 95/156/202 94/66/202 96/70/202
f 75/134/43 72/177/43 73/74/43
f 73/74/43 71/132/43 75/134/43
f 81/146/203 92/145/203 97/162/203
f 86/151/204 97/163/204 88/154/204
f 86/151/205 80/149/205 82/77/205
f 55/108/206 100/170/206 98/166/206
f 66/101/207 98/165/207 99/167/207
f 98/165/208 104/171/208 102/168/208
f 103/169/209 104/181/209 98/166/209
f 101/173/210 103/182/210 100/164/210
f 101/173/211 105/174/211 103/182/211
f 103/169/212 105/183/212 106/184/212
f 103/185/213 106/186/213 104/171/213
f 104/171/214 106/186/214 107/172/214
f 107/172/215 106/186/215 105/183/215
f 100/164/216 47/3/216 50/6/216
f 99/167/217 102/168/217 101/173/217
