[gd_scene load_steps=5 format=2]

[ext_resource path="res://src/card_drop.gd" type="Script" id=1]

[sub_resource type="SpatialMaterial" id=1]

[sub_resource type="CubeMesh" id=2]

[sub_resource type="BoxShape" id=3]
extents = Vector3( 2.0377, 1.51073, 1.98571 )

[node name="card_drop" type="Area"]
input_ray_pickable = false
script = ExtResource( 1 )

[node name="card" type="MeshInstance" parent="."]
transform = Transform( 0.36, 0, 0, 0, 0.48, 0, 0, 0, 0.01, 0, 0, 0 )
material_override = SubResource( 1 )
cast_shadow = 0
mesh = SubResource( 2 )
material/0 = null

[node name="CollisionShape" type="CollisionShape" parent="."]
transform = Transform( 0.4, 0, 0, 0, 0.5, 0, 0, 0, 0.4, 0, 0, 0 )
shape = SubResource( 3 )

[node name="glow" type="OmniLight" parent="."]
light_color = Color( 0, 0, 1, 1 )
light_energy = 2.5
omni_range = 4.0
[connection signal="body_entered" from="." to="." method="_on_card_drop_body_entered"]
