[gd_scene load_steps=4 format=2]

[ext_resource path="res://assets/textures/fireball.png" type="Texture" id=1]
[ext_resource path="res://src/fireball.gd" type="Script" id=2]

[sub_resource type="SphereShape" id=1]

[node name="firbals" type="Area"]
script = ExtResource( 2 )

[node name="Sprite3D" type="Sprite3D" parent="."]
billboard = 1
texture = ExtResource( 1 )

[node name="CollisionShape" type="CollisionShape" parent="."]
transform = Transform( 0.4, 0, 0, 0, 0.4, 0, 0, 0, 0.4, 0, 0, 0 )
shape = SubResource( 1 )
[connection signal="body_entered" from="." to="." method="_on_firbals_body_entered"]
