[gd_scene load_steps=8 format=2]

[ext_resource path="res://src/Imp2.gd" type="Script" id=1]
[ext_resource path="res://assets/garbimp2.obj" type="ArrayMesh" id=2]
[ext_resource path="res://assets/textures/lava1.png" type="Texture" id=3]

[sub_resource type="BoxShape" id=1]
extents = Vector3( 1, 1.5264, 0.745344 )

[sub_resource type="SpatialMaterial" id=2]
albedo_texture = ExtResource( 3 )

[sub_resource type="BoxShape" id=3]
extents = Vector3( 0.538271, 0.722482, 0.603934 )

[sub_resource type="BoxShape" id=4]
extents = Vector3( 0.70992, 0.660249, 0.690166 )

[node name="Imp" type="KinematicBody"]
script = ExtResource( 1 )
imp_state = 1
force_state = true

[node name="CollisionShape" type="CollisionShape" parent="."]
transform = Transform( 1, 0, 0, 0, 1, 0, 0, 0, 1, -0.0590868, 0.531778, 0 )
shape = SubResource( 1 )

[node name="MeshInstance" type="MeshInstance" parent="."]
transform = Transform( 1, 0, 0, 0, 1, 1.06581e-14, 0, -1.06581e-14, 1, 0, 0, 0 )
mesh = ExtResource( 2 )
material/0 = SubResource( 2 )

[node name="launchpos" type="Spatial" parent="."]
transform = Transform( 1, 0, 0, 0, 1, 0, 0, 0, 1, -0.354518, 4.61993, 0 )

[node name="CollisionShape3" type="CollisionShape" parent="."]
transform = Transform( 0.840065, -0.542486, 0, 0.542486, 0.840065, 0, 0, 0, 1, -1.92476, 3.77378, 0 )
shape = SubResource( 3 )

[node name="CollisionShape4" type="CollisionShape" parent="."]
transform = Transform( 0.672651, -0.73996, 0, 0.73996, 0.672651, 0, 0, 0, 1, 1.17105, 5.4278, 0.187755 )
shape = SubResource( 4 )
